%YAML 1.1
%TAG !u! tag:unity3d.com,2011:
--- !u!21 &2100000
Material:
  serializedVersion: 8
  m_ObjectHideFlags: 0
  m_CorrespondingSourceObject: {fileID: 0}
  m_PrefabInstance: {fileID: 0}
  m_PrefabAsset: {fileID: 0}
  m_Name: M Conifer Bark Array BODT URP
  m_Shader: {fileID: 4800000, guid: 49f652e41ab8434499aeb0ebfe6b56a7, type: 3}
  m_ValidKeywords:
  - _NORMALINDEPTHNORMALPASS
  - _NORMALMAP
  m_InvalidKeywords:
  - _METALLICGLOSSMAP
  m_LightmapFlags: 4
  m_EnableInstancingVariants: 1
  m_DoubleSidedGI: 0
  m_CustomRenderQueue: -1
  stringTagMap: {}
  disabledShaderPasses: []
  m_SavedProperties:
    serializedVersion: 3
    m_TexEnvs:
    - _BaseMap:
        m_Texture: {fileID: 0}
        m_Scale: {x: 1, y: 1}
        m_Offset: {x: 0, y: 0}
    - _BaseMapArray:
        m_Texture: {fileID: 18700000, guid: 41ebf0d05b0ec4283bcbbbc656c82aec, type: 2}
        m_Scale: {x: 1, y: 1}
        m_Offset: {x: 0, y: 0}
    - _BumpMap:
        m_Texture: {fileID: 0}
        m_Scale: {x: 1, y: 1}
        m_Offset: {x: 0, y: 0}
    - _BumpOcclusionMapArray:
        m_Texture: {fileID: 18700000, guid: 14f4181ca612e43c9b344f073e03a7c6, type: 2}
        m_Scale: {x: 1, y: 1}
        m_Offset: {x: 0, y: 0}
    - _BumpSpecAOMap:
        m_Texture: {fileID: 2800000, guid: cc724252428df448db5a10316678900b, type: 3}
        m_Scale: {x: 1, y: 1}
        m_Offset: {x: 0, y: 0}
    - _BumpSpecAOMapArray:
        m_Texture: {fileID: 18700000, guid: 14f4181ca612e43c9b344f073e03a7c6, type: 2}
        m_Scale: {x: 1, y: 1}
        m_Offset: {x: 0, y: 0}
    - _BumpSpecMap:
        m_Texture: {fileID: 0}
        m_Scale: {x: 1, y: 1}
        m_Offset: {x: 0, y: 0}
    - _DetailAlbedoMap:
        m_Texture: {fileID: 0}
        m_Scale: {x: 1, y: 1}
        m_Offset: {x: 0, y: 0}
    - _DetailMask:
        m_Texture: {fileID: 0}
        m_Scale: {x: 1, y: 1}
        m_Offset: {x: 0, y: 0}
    - _DetailNormalMap:
        m_Texture: {fileID: 0}
        m_Scale: {x: 1, y: 1}
        m_Offset: {x: 0, y: 0}
    - _DetailNormalMapX:
        m_Texture: {fileID: 2800000, guid: 37fe0b5bbca93450593b8790186bf777, type: 3}
        m_Scale: {x: 1, y: 1}
        m_Offset: {x: 0, y: 0}
    - _EmissionMap:
        m_Texture: {fileID: 0}
        m_Scale: {x: 1, y: 1}
        m_Offset: {x: 0, y: 0}
    - _MainTex:
        m_Texture: {fileID: 2800000, guid: d7e1060759db04260bbeb12bc11664bd, type: 3}
        m_Scale: {x: 1, y: 1}
        m_Offset: {x: 0, y: 0}
    - _MainTexArray:
        m_Texture: {fileID: 18700000, guid: 41ebf0d05b0ec4283bcbbbc656c82aec, type: 2}
        m_Scale: {x: 1, y: 1}
        m_Offset: {x: 0, y: 0}
    - _MetallicGlossMap:
        m_Texture: {fileID: 0}
        m_Scale: {x: 1, y: 1}
        m_Offset: {x: 0, y: 0}
    - _OcclusionMap:
        m_Texture: {fileID: 0}
        m_Scale: {x: 1, y: 1}
        m_Offset: {x: 0, y: 0}
    - _ParallaxMap:
        m_Texture: {fileID: 0}
        m_Scale: {x: 1, y: 1}
        m_Offset: {x: 0, y: 0}
    - _TranslucencyMap:
        m_Texture: {fileID: 0}
        m_Scale: {x: 1, y: 1}
        m_Offset: {x: 0, y: 0}
    - unity_Lightmaps:
        m_Texture: {fileID: 0}
        m_Scale: {x: 1, y: 1}
        m_Offset: {x: 0, y: 0}
    - unity_LightmapsInd:
        m_Texture: {fileID: 0}
        m_Scale: {x: 1, y: 1}
        m_Offset: {x: 0, y: 0}
    - unity_ShadowMasks:
        m_Texture: {fileID: 0}
        m_Scale: {x: 1, y: 1}
        m_Offset: {x: 0, y: 0}
    m_Ints: []
    m_Floats:
    - _ApplyNormal: 1
    - _ApplyNormalDepthNormal: 1
    - _BranchWind: 0
    - _BumpScale: 1
    - _ColorContrast: 1
    - _ColorMultiplier: 1
    - _Cutoff: 0
    - _DebugBending: 0
    - _DebugMode: 4
    - _DetailMode: 0
    - _DetailNormalMapScale: 1
    - _DstBlend: 0
    - _EdgeFlutterInfluence: 0.25
    - _EnableAdvancedEdgeBending: 0
    - _EnableLeafTurbulence: 0
    - _FadeOutWind: 0
    - _GlossMapScale: 1
    - _Glossiness: 0.5
    - _GlossyReflections: 1
    - _IsBark: 1
    - _LODTerrain: 1
    - _LeafTumbling: 0
    - _LeafTurbulence: 0.2
    - _MainWind: 0
    - _Metallic: 0
    - _Mode: 0
    - _NormalLerp: 1
    - _OcclusionStrength: 1
    - _Parallax: 0.02
    - _ReceiveDecals: 0
    - _ReceiveShadows: 1
    - _Smoothness: 1
    - _SmoothnessTextureChannel: 0
    - _SpecularHighlights: 1
    - _SrcBlend: 1
    - _SwapUVS: 0
    - _Tangents: 0
    - _TimeOffset: 0.25
    - _TranslucencyStrength: 0.5
    - _TumbleFrequency: 1
    - _TumbleStrength: 0.1
    - _UVSec: 0
    - _UseArrays: 1
    - _UseDetails: 0
    - _WindVariation: 0.0046
    - _ZWrite: 1
    m_Colors:
    - _AdvancedEdgeBending: {r: 0.1, g: 5, b: 0, a: 0}
    - _AverageCol: {r: 1, g: 1, b: 1, a: 0.5}
    - _BaseWindMultipliers: {r: 0.6, g: 0.11, b: 1, a: 0}
    - _Color: {r: 1, g: 0, b: 0, a: 1}
    - _EmissionColor: {r: 0, g: 0, b: 0, a: 1}
    - _HueVariation: {r: 0, g: 0.9, b: 0.8255172, a: 0.1}
    - _SpecColor: {r: 0.19999996, g: 0.19999996, b: 0.19999996, a: 1}
  m_BuildTextureStacks: []
